f_multiplier/un.vcd
$date
	Mon Nov 28 20:40:54 2022
$end
$version
	Icarus Verilog
$end
$timescale
	10ps
$end
$scope module unsigned_multiplier_tb $end
$var wire 4 ! out [3:0] $end
$var reg 4 " in0 [3:0] $end
$var reg 4 # in1 [3:0] $end
$var integer 32 $ i [31:0] $end
$var integer 32 % j [31:0] $end
$scope module u_unsigned_multiplier $end
$var wire 4 & in0 [3:0] $end
$var wire 4 ' in1 [3:0] $end
$var wire 4 ( out [3:0] $end
$var reg 3 ) i [2:0] $end
$var reg 9 * res [8:0] $end
$scope function bit_cnt_func $end
$var integer 32 + bitwith [31:0] $end
$upscope $end
$upscope $end
$upscope $end
$enddefinitions $end
#0
$dumpvars
bx +
b0 *
b0 )
b0 (
b0 '
b0 &
b0 %
b0 $
b0 #
b0 "
b0 !
$end
#1000
b1 %
#2000
b0 )
b0 *
b10 %
b1 #
b1 '
#3000
b0 )
b0 *
b11 %
b10 #
b10 '
#4000
b0 )
b0 *
b100 %
b11 #
b11 '
#5000
b0 )
b0 *
b101 %
b100 #
b100 '
#6000
b0 )
b0 *
b110 %
b101 #
b101 '
#7000
b0 )
b0 *
b111 %
b110 #
b110 '
#8000
b0 )
b0 *
b1000 %
b111 #
b111 '
#9000
b0 )
b0 *
b1001 %
b1000 #
b1000 '
#10000
b0 )
b0 *
b1010 %
b1001 #
b1001 '
#11000
b0 )
b0 *
b1011 %
b1010 #
b1010 '
#12000
b0 )
b0 *
b1100 %
b1011 #
b1011 '
#13000
b0 )
b0 *
b1101 %
b1100 #
b1100 '
#14000
b0 )
b0 *
b1110 %
b1101 #
b1101 '
#15000
b0 )
b0 *
b1111 %
b1110 #
b1110 '
#16000
b0 )
b0 *
b1 $
b0 %
b1111 #
b1111 '
#17000
b0 )
b1 %
b0 #
b0 '
b1 "
b1 &
#18000
b1 !
b1 (
b0 )
b1 *
b10 %
b1 #
b1 '
#19000
b10 !
b10 (
b0 )
b10 *
b11 %
b10 #
b10 '
#20000
b11 !
b11 (
b0 )
b11 *
b100 %
b11 #
b11 '
#21000
b100 !
b100 (
b0 )
b100 *
b101 %
b100 #
b100 '
#22000
b101 !
b101 (
b0 )
b101 *
b110 %
b101 #
b101 '
#23000
b110 !
b110 (
b0 )
b110 *
b111 %
b110 #
b110 '
#24000
b111 !
b111 (
b0 )
b111 *
b1000 %
b111 #
b111 '
#25000
b1000 !
b1000 (
b0 )
b1000 *
b1001 %
b1000 #
b1000 '
#26000
b1001 !
b1001 (
b0 )
b1001 *
b1010 %
b1001 #
b1001 '
#27000
b1010 !
b1010 (
b0 )
b1010 *
b1011 %
b1010 #
b1010 '
#28000
b1011 !
b1011 (
b0 )
b1011 *
b1100 %
b1011 #
b1011 '
#29000
b1100 !
b1100 (
b0 )
b1100 *
b1101 %
b1100 #
b1100 '
#30000
b1101 !
b1101 (
b0 )
b1101 *
b1110 %
b1101 #
b1101 '
#31000
b1110 !
b1110 (
b0 )
b1110 *
b1111 %
b1110 #
b1110 '
#32000
b1111 !
b1111 (
b0 )
b1111 *
b10 $
b0 %
b1111 #
b1111 '
#33000
b0 !
b0 (
b0 )
b0 *
b1 %
b0 #
b0 '
b10 "
b10 &
#34000
b10 !
b10 (
b0 )
b10 *
b10 %
b1 #
b1 '
#35000
b100 !
b100 (
b0 )
b100 *
b11 %
b10 #
b10 '
#36000
b110 !
b110 (
b0 )
b110 *
b100 %
b11 #
b11 '
#37000
b1000 !
b1000 (
b0 )
b1000 *
b101 %
b100 #
b100 '
#38000
b1010 !
b1010 (
b0 )
b1010 *
b110 %
b101 #
b101 '
#39000
b1100 !
b1100 (
b0 )
b1100 *
b111 %
b110 #
b110 '
#40000
b1110 !
b1110 (
b0 )
b1110 *
b1000 %
b111 #
b111 '
#41000
b0 !
b0 (
b0 )
b10000 *
b1001 %
b1000 #
b1000 '
#42000
b10 !
b10 (
b0 )
b10010 *
b1010 %
b1001 #
b1001 '
#43000
b100 !
b100 (
b0 )
b10100 *
b1011 %
b1010 #
b1010 '
#44000
b110 !
b110 (
b0 )
b10110 *
b1100 %
b1011 #
b1011 '
#45000
b1000 !
b1000 (
b0 )
b11000 *
b1101 %
b1100 #
b1100 '
#46000
b1010 !
b1010 (
b0 )
b11010 *
b1110 %
b1101 #
b1101 '
#47000
b1100 !
b1100 (
b0 )
b11100 *
b1111 %
b1110 #
b1110 '
#48000
b1110 !
b1110 (
b0 )
b11110 *
b11 $
b0 %
b1111 #
b1111 '
#49000
b0 !
b0 (
b0 )
b0 *
b1 %
b0 #
b0 '
b11 "
b11 &
#50000
b11 !
b11 (
b0 )
b11 *
b10 %
b1 #
b1 '
#51000
b110 !
b110 (
b0 )
b110 *
b11 %
b10 #
b10 '
#52000
b1001 !
b1001 (
b0 )
b1001 *
b100 %
b11 #
b11 '
#53000
b1100 !
b1100 (
b0 )
b1100 *
b101 %
b100 #
b100 '
#54000
b1111 !
b1111 (
b0 )
b1111 *
b110 %
b101 #
b101 '
#55000
b10 !
b10 (
b0 )
b10010 *
b111 %
b110 #
b110 '
#56000
b101 !
b101 (
b0 )
b10101 *
b1000 %
b111 #
b111 '
#57000
b1000 !
b1000 (
b0 )
b11000 *
b1001 %
b1000 #
b1000 '
#58000
b1011 !
b1011 (
b0 )
b11011 *
b1010 %
b1001 #
b1001 '
#59000
b1110 !
b1110 (
b0 )
b11110 *
b1011 %
b1010 #
b1010 '
#60000
b1 !
b1 (
b0 )
b100001 *
b1100 %
b1011 #
b1011 '
#61000
b100 !
b100 (
b0 )
b100100 *
b1101 %
b1100 #
b1100 '
#62000
b111 !
b111 (
b0 )
b100111 *
b1110 %
b1101 #
b1101 '
#63000
b1010 !
b1010 (
b0 )
b101010 *
b1111 %
b1110 #
b1110 '
#64000
b1101 !
b1101 (
b0 )
b101101 *
b100 $
b0 %
b1111 #
b1111 '
#65000
b0 !
b0 (
b0 )
b0 *
b1 %
b0 #
b0 '
b100 "
b100 &
#66000
b100 !
b100 (
b0 )
b100 *
b10 %
b1 #
b1 '
#67000
b1000 !
b1000 (
b0 )
b1000 *
b11 %
b10 #
b10 '
#68000
b1100 !
b1100 (
b0 )
b1100 *
b100 %
b11 #
b11 '
#69000
b0 !
b0 (
b0 )
b10000 *
b101 %
b100 #
b100 '
#70000
b100 !
b100 (
b0 )
b10100 *
b110 %
b101 #
b101 '
#71000
b1000 !
b1000 (
b0 )
b11000 *
b111 %
b110 #
b110 '
#72000
b1100 !
b1100 (
b0 )
b11100 *
b1000 %
b111 #
b111 '
#73000
b0 !
b0 (
b0 )
b100000 *
b1001 %
b1000 #
b1000 '
#74000
b100 !
b100 (
b0 )
b100100 *
b1010 %
b1001 #
b1001 '
#75000
b1000 !
b1000 (
b0 )
b101000 *
b1011 %
b1010 #
b1010 '
#76000
b1100 !
b1100 (
b0 )
b101100 *
b1100 %
b1011 #
b1011 '
#77000
b0 !
b0 (
b0 )
b110000 *
b1101 %
b1100 #
b1100 '
#78000
b100 !
b100 (
b0 )
b110100 *
b1110 %
b1101 #
b1101 '
#79000
b1000 !
b1000 (
b0 )
b111000 *
b1111 %
b1110 #
b1110 '
#80000
b1100 !
b1100 (
b0 )
b111100 *
b101 $
b0 %
b1111 #
b1111 '
#81000
b0 !
b0 (
b0 )
b0 *
b1 %
b0 #
b0 '
b101 "
b101 &
#82000
b101 !
b101 (
b0 )
b101 *
b10 %
b1 #
b1 '
#83000
b1010 !
b1010 (
b0 )
b1010 *
b11 %
b10 #
b10 '
#84000
b1111 !
b1111 (
b0 )
b1111 *
b100 %
b11 #
b11 '
#85000
b100 !
b100 (
b0 )
b10100 *
b101 %
b100 #
b100 '
#86000
b1001 !
b1001 (
b0 )
b11001 *
b110 %
b101 #
b101 '
#87000
b1110 !
b1110 (
b0 )
b11110 *
b111 %
b110 #
b110 '
#88000
b11 !
b11 (
b0 )
b100011 *
b1000 %
b111 #
b111 '
#89000
b1000 !
b1000 (
b0 )
b101000 *
b1001 %
b1000 #
b1000 '
#90000
b1101 !
b1101 (
b0 )
b101101 *
b1010 %
b1001 #
b1001 '
#91000
b10 !
b10 (
b0 )
b110010 *
b1011 %
b1010 #
b1010 '
#92000
b111 !
b111 (
b0 )
b110111 *
b1100 %
b1011 #
b1011 '
#93000
b1100 !
b1100 (
b0 )
b111100 *
b1101 %
b1100 #
b1100 '
#94000
b1 !
b1 (
b0 )
b1000001 *
b1110 %
b1101 #
b1101 '
#95000
b110 !
b110 (
b0 )
b1000110 *
b1111 %
b1110 #
b1110 '
#96000
b1011 !
b1011 (
b0 )
b1001011 *
b110 $
b0 %
b1111 #
b1111 '
#97000
b0 !
b0 (
b0 )
b0 *
b1 %
b0 #
b0 '
b110 "
b110 &
#98000
b110 !
b110 (
b0 )
b110 *
b10 %
b1 #
b1 '
#99000
b1100 !
b1100 (
b0 )
b1100 *
b11 %
b10 #
b10 '
#100000
b10 !
b10 (
b0 )
b10010 *
b100 %
b11 #
b11 '
#101000
b1000 !
b1000 (
b0 )
b11000 *
b101 %
b100 #
b100 '
#102000
b1110 !
b1110 (
b0 )
b11110 *
b110 %
b101 #
b101 '
#103000
b100 !
b100 (
b0 )
b100100 *
b111 %
b110 #
b110 '
#104000
b1010 !
b1010 (
b0 )
b101010 *
b1000 %
b111 #
b111 '
#105000
b0 !
b0 (
b0 )
b110000 *
b1001 %
b1000 #
b1000 '
#106000
b110 !
b110 (
b0 )
b110110 *
b1010 %
b1001 #
b1001 '
#107000
b1100 !
b1100 (
b0 )
b111100 *
b1011 %
b1010 #
b1010 '
#108000
b10 !
b10 (
b0 )
b1000010 *
b1100 %
b1011 #
b1011 '
#109000
b1000 !
b1000 (
b0 )
b1001000 *
b1101 %
b1100 #
b1100 '
#110000
b1110 !
b1110 (
b0 )
b1001110 *
b1110 %
b1101 #
b1101 '
#111000
b100 !
b100 (
b0 )
b1010100 *
b1111 %
b1110 #
b1110 '
#112000
b1010 !
b1010 (
b0 )
b1011010 *
b111 $
b0 %
b1111 #
b1111 '
#113000
b0 !
b0 (
b0 )
b0 *
b1 %
b0 #
b0 '
b111 "
b111 &
#114000
b111 !
b111 (
b0 )
b111 *
b10 %
b1 #
b1 '
#115000
b1110 !
b1110 (
b0 )
b1110 *
b11 %
b10 #
b10 '
#116000
b101 !
b101 (
b0 )
b10101 *
b100 %
b11 #
b11 '
#117000
b1100 !
b1100 (
b0 )
b11100 *
b101 %
b100 #
b100 '
#118000
b11 !
b11 (
b0 )
b100011 *
b110 %
b101 #
b101 '
#119000
b1010 !
b1010 (
b0 )
b101010 *
b111 %
b110 #
b110 '
#120000
b1 !
b1 (
b0 )
b110001 *
b1000 %
b111 #
b111 '
#121000
b1000 !
b1000 (
b0 )
b111000 *
b1001 %
b1000 #
b1000 '
#122000
b1111 !
b1111 (
b0 )
b111111 *
b1010 %
b1001 #
b1001 '
#123000
b110 !
b110 (
b0 )
b1000110 *
b1011 %
b1010 #
b1010 '
#124000
b1101 !
b1101 (
b0 )
b1001101 *
b1100 %
b1011 #
b1011 '
#125000
b100 !
b100 (
b0 )
b1010100 *
b1101 %
b1100 #
b1100 '
#126000
b1011 !
b1011 (
b0 )
b1011011 *
b1110 %
b1101 #
b1101 '
#127000
b10 !
b10 (
b0 )
b1100010 *
b1111 %
b1110 #
b1110 '
#128000
b1001 !
b1001 (
b0 )
b1101001 *
b1000 $
b0 %
b1111 #
b1111 '
#129000
b0 !
b0 (
b0 )
b0 *
b1 %
b0 #
b0 '
b1000 "
b1000 &
#130000
b1000 !
b1000 (
b0 )
b1000 *
b10 %
b1 #
b1 '
#131000
b0 !
b0 (
b0 )
b10000 *
b11 %
b10 #
b10 '
#132000
b1000 !
b1000 (
b0 )
b11000 *
b100 %
b11 #
b11 '
#133000
b0 !
b0 (
b0 )
b100000 *
b101 %
b100 #
b100 '
#134000
b1000 !
b1000 (
b0 )
b101000 *
b110 %
b101 #
b101 '
#135000
b0 !
b0 (
b0 )
b110000 *
b111 %
b110 #
b110 '
#136000
b1000 !
b1000 (
b0 )
b111000 *
b1000 %
b111 #
b111 '
#137000
b0 !
b0 (
b0 )
b1000000 *
b1001 %
b1000 #
b1000 '
#138000
b1000 !
b1000 (
b0 )
b1001000 *
b1010 %
b1001 #
b1001 '
#139000
b0 !
b0 (
b0 )
b1010000 *
b1011 %
b1010 #
b1010 '
#140000
b1000 !
b1000 (
b0 )
b1011000 *
b1100 %
b1011 #
b1011 '
#141000
b0 !
b0 (
b0 )
b1100000 *
b1101 %
b1100 #
b1100 '
#142000
b1000 !
b1000 (
b0 )
b1101000 *
b1110 %
b1101 #
b1101 '
#143000
b0 !
b0 (
b0 )
b1110000 *
b1111 %
b1110 #
b1110 '
#144000
b1000 !
b1000 (
b0 )
b1111000 *
b1001 $
b0 %
b1111 #
b1111 '
#145000
b0 !
b0 (
b0 )
b0 *
b1 %
b0 #
b0 '
b1001 "
b1001 &
#146000
b1001 !
b1001 (
b0 )
b1001 *
b10 %
b1 #
b1 '
#147000
b10 !
b10 (
b0 )
b10010 *
b11 %
b10 #
b10 '
#148000
b1011 !
b1011 (
b0 )
b11011 *
b100 %
b11 #
b11 '
#149000
b100 !
b100 (
b0 )
b100100 *
b101 %
b100 #
b100 '
#150000
b1101 !
b1101 (
b0 )
b101101 *
b110 %
b101 #
b101 '
#151000
b110 !
b110 (
b0 )
b110110 *
b111 %
b110 #
b110 '
#152000
b1111 !
b1111 (
b0 )
b111111 *
b1000 %
b111 #
b111 '
#153000
b1000 !
b1000 (
b0 )
b1001000 *
b1001 %
b1000 #
b1000 '
#154000
b1 !
b1 (
b0 )
b1010001 *
b1010 %
b1001 #
b1001 '
#155000
b1010 !
b1010 (
b0 )
b1011010 *
b1011 %
b1010 #
b1010 '
#156000
b11 !
b11 (
b0 )
b1100011 *
b1100 %
b1011 #
b1011 '
#157000
b1100 !
b1100 (
b0 )
b1101100 *
b1101 %
b1100 #
b1100 '
#158000
b101 !
b101 (
b0 )
b1110101 *
b1110 %
b1101 #
b1101 '
#159000
b1110 !
b1110 (
b0 )
b1111110 *
b1111 %
b1110 #
b1110 '
#160000
b111 !
b111 (
b0 )
b111 *
b1010 $
b0 %
b1111 #
b1111 '
#161000
b0 !
b0 (
b0 )
b0 *
b1 %
b0 #
b0 '
b1010 "
b1010 &
#162000
b1010 !
b1010 (
b0 )
b1010 *
b10 %
b1 #
b1 '
#163000
b100 !
b100 (
b0 )
b10100 *
b11 %
b10 #
b10 '
#164000
b1110 !
b1110 (
b0 )
b11110 *
b100 %
b11 #
b11 '
#165000
b1000 !
b1000 (
b0 )
b101000 *
b101 %
b100 #
b100 '
#166000
b10 !
b10 (
b0 )
b110010 *
b110 %
b101 #
b101 '
#167000
b1100 !
b1100 (
b0 )
b111100 *
b111 %
b110 #
b110 '
#168000
b110 !
b110 (
b0 )
b110 *
b1000 %
b111 #
b111 '
#169000
b0 !
b0 (
b0 )
b1010000 *
b1001 %
b1000 #
b1000 '
#170000
b1010 !
b1010 (
b0 )
b1011010 *
b1010 %
b1001 #
b1001 '
#171000
b100 !
b100 (
b0 )
b1100100 *
b1011 %
b1010 #
b1010 '
#172000
b1110 !
b1110 (
b0 )
b1101110 *
b1100 %
b1011 #
b1011 '
#173000
b1000 !
b1000 (
b0 )
b1111000 *
b1101 %
b1100 #
b1100 '
#174000
b10 !
b10 (
b0 )
b10 *
b1110 %
b1101 #
b1101 '
#175000
b1100 !
b1100 (
b0 )
b1100 *
b1111 %
b1110 #
b1110 '
#176000
b110 !
b110 (
b0 )
b1010110 *
b1011 $
b0 %
b1111 #
b1111 '
#177000
b0 !
b0 (
b0 )
b0 *
b1 %
b0 #
b0 '
b1011 "
b1011 &
#178000
b1011 !
b1011 (
b0 )
b1011 *
b10 %
b1 #
b1 '
#179000
b110 !
b110 (
b0 )
b10110 *
b11 %
b10 #
b10 '
#180000
b1 !
b1 (
b0 )
b1 *
b100 %
b11 #
b11 '
#181000
b1100 !
b1100 (
b0 )
b101100 *
b101 %
b100 #
b100 '
#182000
b111 !
b111 (
b0 )
b110111 *
b110 %
b101 #
b101 '
#183000
b10 !
b10 (
b0 )
b10 *
b111 %
b110 #
b110 '
#184000
b1101 !
b1101 (
b0 )
b101101 *
b1000 %
b111 #
b111 '
#185000
b1000 !
b1000 (
b0 )
b1011000 *
b1001 %
b1000 #
b1000 '
#186000
b11 !
b11 (
b0 )
b1100011 *
b1010 %
b1001 #
b1001 '
#187000
b1110 !
b1110 (
b0 )
b1101110 *
b1011 %
b1010 #
b1010 '
#188000
b1001 !
b1001 (
b0 )
b1011001 *
b1100 %
b1011 #
b1011 '
#189000
b100 !
b100 (
b0 )
b100 *
b1101 %
b1100 #
b1100 '
#190000
b1111 !
b1111 (
b0 )
b1111 *
b1110 %
b1101 #
b1101 '
#191000
b1010 !
b1010 (
b0 )
b1011010 *
b1111 %
b1110 #
b1110 '
#192000
b101 !
b101 (
b0 )
b101 *
b1100 $
b0 %
b1111 #
b1111 '
#193000
b0 !
b0 (
b0 )
b0 *
b1 %
b0 #
b0 '
b1100 "
b1100 &
#194000
b1100 !
b1100 (
b0 )
b1100 *
b10 %
b1 #
b1 '
#195000
b1000 !
b1000 (
b0 )
b11000 *
b11 %
b10 #
b10 '
#196000
b100 !
b100 (
b0 )
b100 *
b100 %
b11 #
b11 '
#197000
b0 !
b0 (
b0 )
b110000 *
b101 %
b100 #
b100 '
#198000
b1100 !
b1100 (
b0 )
b111100 *
b110 %
b101 #
b101 '
#199000
b1000 !
b1000 (
b0 )
b1000 *
b111 %
b110 #
b110 '
#200000
b100 !
b100 (
b0 )
b110100 *
b1000 %
b111 #
b111 '
#201000
b0 !
b0 (
b0 )
b1100000 *
b1001 %
b1000 #
b1000 '
#202000
b1100 !
b1100 (
b0 )
b1101100 *
b1010 %
b1001 #
b1001 '
#203000
b1000 !
b1000 (
b0 )
b1111000 *
b1011 %
b1010 #
b1010 '
#204000
b100 !
b100 (
b0 )
b1100100 *
b1100 %
b1011 #
b1011 '
#205000
b0 !
b0 (
b0 )
b10000 *
b1101 %
b1100 #
b1100 '
#206000
b1100 !
b1100 (
b0 )
b11100 *
b1110 %
b1101 #
b1101 '
#207000
b1000 !
b1000 (
b0 )
b1101000 *
b1111 %
b1110 #
b1110 '
#208000
b100 !
b100 (
b0 )
b10100 *
b1101 $
b0 %
b1111 #
b1111 '
#209000
b0 !
b0 (
b0 )
b0 *
b1 %
b0 #
b0 '
b1101 "
b1101 &
#210000
b1101 !
b1101 (
b0 )
b1101 *
b10 %
b1 #
b1 '
#211000
b1010 !
b1010 (
b0 )
b11010 *
b11 %
b10 #
b10 '
#212000
b111 !
b111 (
b0 )
b111 *
b100 %
b11 #
b11 '
#213000
b100 !
b100 (
b0 )
b110100 *
b101 %
b100 #
b100 '
#214000
b1 !
b1 (
b0 )
b1 *
b110 %
b101 #
b101 '
#215000
b1110 !
b1110 (
b0 )
b1110 *
b111 %
b110 #
b110 '
#216000
b1011 !
b1011 (
b0 )
b111011 *
b1000 %
b111 #
b111 '
#217000
b1000 !
b1000 (
b0 )
b1101000 *
b1001 %
b1000 #
b1000 '
#218000
b101 !
b101 (
b0 )
b1110101 *
b1010 %
b1001 #
b1001 '
#219000
b10 !
b10 (
b0 )
b10 *
b1011 %
b1010 #
b1010 '
#220000
b1111 !
b1111 (
b0 )
b1101111 *
b1100 %
b1011 #
b1011 '
#221000
b1100 !
b1100 (
b0 )
b11100 *
b1101 %
b1100 #
b1100 '
#222000
b1001 !
b1001 (
b0 )
b1101001 *
b1110 %
b1101 #
b1101 '
#223000
b110 !
b110 (
b0 )
b1110110 *
b1111 %
b1110 #
b1110 '
#224000
b11 !
b11 (
b0 )
b100011 *
b1110 $
b0 %
b1111 #
b1111 '
#225000
b0 !
b0 (
b0 )
b0 *
b1 %
b0 #
b0 '
b1110 "
b1110 &
#226000
b1110 !
b1110 (
b0 )
b1110 *
b10 %
b1 #
b1 '
#227000
b1100 !
b1100 (
b0 )
b11100 *
b11 %
b10 #
b10 '
#228000
b1010 !
b1010 (
b0 )
b1010 *
b100 %
b11 #
b11 '
#229000
b1000 !
b1000 (
b0 )
b111000 *
b101 %
b100 #
b100 '
#230000
b110 !
b110 (
b0 )
b110 *
b110 %
b101 #
b101 '
#231000
b100 !
b100 (
b0 )
b10100 *
b111 %
b110 #
b110 '
#232000
b10 !
b10 (
b0 )
b10 *
b1000 %
b111 #
b111 '
#233000
b0 !
b0 (
b0 )
b1110000 *
b1001 %
b1000 #
b1000 '
#234000
b1110 !
b1110 (
b0 )
b1111110 *
b1010 %
b1001 #
b1001 '
#235000
b1100 !
b1100 (
b0 )
b1100 *
b1011 %
b1010 #
b1010 '
#236000
b1010 !
b1010 (
b0 )
b1111010 *
b1100 %
b1011 #
b1011 '
#237000
b1000 !
b1000 (
b0 )
b101000 *
b1101 %
b1100 #
b1100 '
#238000
b110 !
b110 (
b0 )
b1110110 *
b1110 %
b1101 #
b1101 '
#239000
b100 !
b100 (
b0 )
b100 *
b1111 %
b1110 #
b1110 '
#240000
b10 !
b10 (
b0 )
b1110010 *
b1111 $
b0 %
b1111 #
b1111 '
#241000
b0 !
b0 (
b0 )
b0 *
b1 %
b0 #
b0 '
b1111 "
b1111 &
#242000
b1111 !
b1111 (
b0 )
b1111 *
b10 %
b1 #
b1 '
#243000
b1110 !
b1110 (
b0 )
b11110 *
b11 %
b10 #
b10 '
#244000
b1101 !
b1101 (
b0 )
b1101 *
b100 %
b11 #
b11 '
#245000
b1100 !
b1100 (
b0 )
b111100 *
b101 %
b100 #
b100 '
#246000
b1011 !
b1011 (
b0 )
b1011 *
b110 %
b101 #
b101 '
#247000
b1010 !
b1010 (
b0 )
b11010 *
b111 %
b110 #
b110 '
#248000
b1001 !
b1001 (
b0 )
b1001 *
b1000 %
b111 #
b111 '
#249000
b1000 !
b1000 (
b0 )
b1111000 *
b1001 %
b1000 #
b1000 '
#250000
b111 !
b111 (
b0 )
b111 *
b1010 %
b1001 #
b1001 '
#251000
b110 !
b110 (
b0 )
b10110 *
b1011 %
b1010 #
b1010 '
#252000
b101 !
b101 (
b0 )
b101 *
b1100 %
b1011 #
b1011 '
#253000
b100 !
b100 (
b0 )
b110100 *
b1101 %
b1100 #
b1100 '
#254000
b11 !
b11 (
b0 )
b11 *
b1110 %
b1101 #
b1101 '
#255000
b10 !
b10 (
b0 )
b10010 *
b1111 %
b1110 #
b1110 '
#256000
b1 !
b1 (
b0 )
b1 *
b10000 $
b10000 %
b1111 #
b1111 '
